{
    "aliases": {
        "COLOR_BRAND_PRIMARY": "#FF671B",
        "COLOR_BRAND_DARK_GREY": "#141413",
        "COLOR_BRAND_LIGHT_GREY": "#E3DFD7",
        "COLOR_WHITE": "#FFFFFF",
        "COLOR_BACKGROUND_APP": "#FFFFFF",
        "COLOR_BACKGROUND_ACCENT": "#F8F7F5",
        "COLOR_BACKGROUND_DISABLED": "#D3D3D3",
        "COLOR_BACKGROUND_FORM_ELEMENT": "#FFFFFF",
        "COLOR_BACKGROUND_SEARCH": "#F3F3F3",
        "COLOR_BACKGROUND_SIDE_NAV": "#FFFFFF",
        "COLOR_BACKGROUND_PAGE_TITLE": "#F0EFEB",
        "COLOR_BACKGROUND_MESSAGE": "#F8F7F5",
        "COLOR_BACKGROUND_TOGGLE": "#EBE7DE",
        "COLOR_BACKGROUND_RADIO": "{!COLOR_BRAND_DARK_GREY}",
        "COLOR_BACKGROUND_MESSAGE_ICON": "#FFFFFF",
        "COLOR_BACKGROUND_MESSAGE_ICON_LIGHT": "#FFFFFF",
        "COLOR_BORDER_BASE": "#F0EFEB",
        "COLOR_INVERSE": "#FFFFFF",
        "COLOR_TEXT_01": "#141413",
        "COLOR_TEXT_FORM_ELEMENT": "#444340",
        "COLOR_TAB_ACTIVE": "{!COLOR_BRAND_PRIMARY}",
        "BORDER_RADIUS_BUTTONS": "100px",
        "BORDER_RADIUS_FORM_ELEMENT": "100px",
        "FONT_SIZE_BASE": "1rem",
        "FONT_FAMILY_BASE": "Arial, Helvetica, sans-serif",
        "SPACING_XXS": "0.25rem",
        "SPACING_XS": "0.5rem",
        "SPACING_S": "0.75rem",
        "SPACING_BASE": "1rem",
        "SPACING_M": "1.25rem",
        "SPACING_LG": "2rem",
        "SPACING_XL": "2.5rem",
        "DURATION_BASE": "500ms"
    }
}