{
    "imports": [
        "./aliases.json"
    ],
    "props": {
        "COLOR-BRAND-DARK-GREY": {
            "value": "{!COLOR_BRAND_DARK_GREY}",
            "type": "color",
            "category": "color",
            "comment": "Dark grey brand colour."
        },
        "COLOR-BRAND-LIGHT-GREY": {
            "value": "{!COLOR_BRAND_LIGHT_GREY}",
            "type": "color",
            "category": "color",
            "comment": "Light grey brand colour"
        },
        "COLOR-WHITE": {
            "value": "{!COLOR_WHITE}",
            "type": "color",
            "category": "color",
            "comment": "White"
        },
        "COLOR-BACKGROUND-BRAND": {
            "value": "{!COLOR_BRAND_PRIMARY}",
            "type": "color",
            "category": "background-color",
            "comment": "Primary Brand background color"
        },
        "COLOR-BACKGROUND-APP": {
            "value": "{!COLOR_BACKGROUND_APP}",
            "type": "color",
            "category": "background-color",
            "comment": "Background color for the application"
        },
        "COLOR-BACKGROUND-DISABLED": {
            "value": "{!COLOR_BACKGROUND_DISABLED}",
            "type": "color",
            "category": "background-color",
            "comment": "Background color for disabled elements"
        },
        "COLOR-BACKGROUND-ACCENT": {
            "value": "{!COLOR_BACKGROUND_ACCENT}",
            "type": "color",
            "category": "background-color",
            "comment": "Accent Background color"
        },
        "COLOR-BACKGROUND-FORM-ELEMENT": {
            "value": "{!COLOR_BACKGROUND_FORM_ELEMENT}",
            "type": "color",
            "category": "background-color",
            "comment": "Form Element Background color"
        },
        "COLOR-BACKGROUND-RADIO": {
            "value": "{!COLOR_BACKGROUND_RADIO}",
            "type": "color",
            "category": "background-color",
            "comment": "Background color for radio checked mark"
        },
        "COLOR-BACKGROUND-SEARCH": {
            "value": "{!COLOR_BACKGROUND_SEARCH}",
            "type": "color",
            "category": "background-color",
            "comment": "Search Form Element Background color"
        },
        "COLOR-BACKGROUND-SIDE_NAV": {
            "value": "{!COLOR_BACKGROUND_SIDE_NAV}",
            "type": "color",
            "category": "background-color",
            "comment": "Background color of side navigation"
        },
        "COLOR-BACKGROUND-PAGE-TITLE": {
            "value": "{!COLOR_BACKGROUND_PAGE_TITLE}",
            "type": "color",
            "category": "background-color",
            "comment": "Background color of page title"
        },
        "COLOR-BACKGROUND-TOGGLE": {
            "value": "{!COLOR_BACKGROUND_TOGGLE}",
            "type": "color",
            "category": "background-color",
            "comment": "Background color of toggle switch"
        },
        "COLOR-BACKGROUND-MESSAGE": {
            "value": "{!COLOR_BACKGROUND_MESSAGE}",
            "type": "color",
            "category": "background-color",
            "comment": "Background color of message/page notification"
        },
        "COLOR-BACKGROUND-MESSAGE-ICON": {
            "value": "{!COLOR_BACKGROUND_MESSAGE_ICON}",
            "type": "color",
            "category": "background-color",
            "comment": "Background color of message/page notification icon"
        },
        "COLOR-BACKGROUND-MESSAGE-ICON-LIGHT": {
            "value": "{!COLOR_BACKGROUND_MESSAGE_ICON_LIGHT}",
            "type": "color",
            "category": "background-color",
            "comment": "Background color of message/page notification icon"
        },
        "COLOR-TEXT-01": {
            "value": "{!COLOR_TEXT_01}",
            "type": "color",
            "category": "background-color",
            "comment": "Text colour for application"
        },
        "COLOR-TEXT-FORM-ELEMENT": {
            "value": "{!COLOR_TEXT_FORM_ELEMENT}",
            "type": "color",
            "category": "background-color",
            "comment": "Text color for form elements"
        },
        "COLOR-TEXT-INVERSE": {
            "value": "{!COLOR_INVERSE}",
            "type": "color",
            "category": "text-color",
            "comment": "Text color used to stand out on inverse background."
        },
        "COLOR-TAB-ACTIVE": {
            "value": "{!COLOR_TAB_ACTIVE}",
            "type": "color",
            "category": "text-color",
            "comment": "Brand text color."
        },
        "COLOR-BORDER-BASE": {
            "value": "{!COLOR_BORDER_BASE}",
            "type": "color",
            "category": "border-color",
            "comment": "Default border color."
        },
        "COLOR-BORDER-BRAND": {
            "value": "{!COLOR_BRAND_PRIMARY}",
            "type": "color",
            "category": "background-color",
            "comment": "Primary Brand background color"
        },
        "BORDER-RADIUS-BUTTONS": {
            "value": "{!BORDER_RADIUS_BUTTONS}",
            "type": "number",
            "category": "border-radius",
            "comment": "Small border radius"
        },
        "BORDER-RADIUS-FORM-ELEMENT": {
            "value": "{!BORDER_RADIUS_FORM_ELEMENT}",
            "type": "number",
            "category": "border-radius",
            "comment": "Medium border radius"
        },
        "FONT-FAMILY-BASE": {
            "value": "{!FONT_FAMILY_BASE}",
            "type": "font",
            "category": "font-family",
            "comment": "Base font family."
        },
        "FONT-SIZE-BASE": {
            "value": "{!FONT_SIZE_BASE}",
            "type": "font",
            "category": "font-size",
            "comment": "Base font size."
        },
        "SPACING-XXS": {
            "value": "{!SPACING_XXS}",
            "type": "spacing",
            "category": "spacing",
            "comment": "Extra Extra small spacing."
        },
         "SPACING-XS": {
            "value": "{!SPACING_XS}",
            "type": "spacing",
            "category": "spacing",
            "comment": "Extra small spacing."
        },
        "SPACING-S": {
            "value": "{!SPACING_S}",
            "type": "spacing",
            "category": "spacing",
            "comment": "Small spacing."
        },
        "SPACING-BASE": {
            "value": "{!SPACING_BASE}",
            "type": "spacing",
            "category": "spacing",
            "comment": "Base spacing."
        },
        "SPACING-M": {
            "value": "{!SPACING_M}",
            "type": "spacing",
            "category": "spacing",
            "comment": "Medium spacing."
        },
        "SPACING-LG": {
            "value": "{!SPACING_LG}",
            "type": "spacing",
            "category": "spacing",
            "comment": "Large spacing."
        },
        "SPACING-XL": {
            "value": "{!SPACING_XL}",
            "type": "spacing",
            "category": "spacing",
            "comment": "Extra Large spacing."
        },
        "DURATION-BASE": {
            "value": "{!DURATION_BASE}",
            "type": "time",
            "category": "time",
            "comment": "Base animation length."
        }
    }
}
